{
  "name": "smash-ganeti",
  "version": "1.0.4",
  "author": "Multiple contributors",
  "summary": "Install and configure ganeti nodes",
  "license": "GPL-3.0+",
  "source": "https://gitlab.com/shared-puppet-modules-group/puppet-ganeti.git",
  "project_page": "https://gitlab.com/shared-puppet-modules-group/puppet-ganeti/",
  "issues_url": "https://gitlab.com/shared-puppet-modules-group/puppet-ganeti/issues",
  "dependencies": [
    {
    "name":"puppetlabs/stdlib",
    "version_requirement":">= 4.6.0 < 7.0.0"
  }
  ,
    {
    "name":"camptocamp/kmod",
    "version_requirement":">= 2.2.0 < 3.0.0"
  }
  
  ]
  ,
  "data_provider": null,
  "requirements": [
    {
      "name":"puppet",
      "version_requirement":">= 4.0.0 < 7.0.0"
    }
  ]
  ,
  "operatingsystem_support": [
    {
      "operatingsystem":"Debian",
      "operatingsystemrelease":[
        "9",
        "10"
      ]
    }
  ]
  ,
  "tags": [
    "ganeti",
    "node",
    "kvm",
    "cluster",
    "cloud"
  ]

}
